14_Migen_Tutorials/Basic/blinky.vcd
$scope module Blinky $end
$var wire 1 ! led $end
$var wire 3 " counter $end
$var wire 1 # sys_clk $end
$enddefinitions $end
$dumpvars
$end
#0
0!
b000 "
0#
#5
b001 "
1#
#10
0#
#15
b010 "
1#
#20
0#
#25
b011 "
1#
#30
0#
#35
1!
b100 "
1#
#40
0#
#45
b101 "
1#
#50
0#
#55
b110 "
1#
#60
0#
#65
b111 "
1#
#70
0#
#75
0!
b000 "
1#
#80
0#
#85
b001 "
1#
#90
0#
#95
b010 "
1#
#100
0#
#105
b011 "
1#
#110
0#
#115
1!
b100 "
1#
#120
0#
#125
b101 "
1#
#130
0#
#135
b110 "
1#
#140
0#
#145
b111 "
1#
#150
0#
#155
0!
b000 "
1#
#160
0#
#165
b001 "
1#
#170
0#
#175
b010 "
1#
#180
0#
#185
b011 "
1#
#190
0#
#195
1!
b100 "
1#
#200
0#
#205
b101 "
1#
0!
b000 "
0#
